{
  "staging": {
    "awscloudformation": {
      "AuthRoleName": "amplify-amplify0ae59f75033c4-staging-165000-authRole",
      "UnauthRoleArn": "arn:aws:iam::715100531220:role/amplify-amplify0ae59f75033c4-staging-165000-unauthRole",
      "AuthRoleArn": "arn:aws:iam::715100531220:role/amplify-amplify0ae59f75033c4-staging-165000-authRole",
      "Region": "eu-central-1",
      "DeploymentBucketName": "amplify-amplify0ae59f75033c4-staging-165000-deployment",
      "UnauthRoleName": "amplify-amplify0ae59f75033c4-staging-165000-unauthRole",
      "StackName": "amplify-amplify0ae59f75033c4-staging-165000",
      "StackId": "arn:aws:cloudformation:eu-central-1:715100531220:stack/amplify-amplify0ae59f75033c4-staging-165000/64d68410-cc67-11eb-9af4-0aea60a71b4e",
      "AmplifyAppId": "d30ara6eqpqio7",
      "AuthTriggerTemplateURL": "",
      "APIGatewayAuthURL": "https://s3.amazonaws.com/amplify-amplify0ae59f75033c4-staging-165000-deployment/amplify-cfn-templates/api/APIGatewayAuthStack.json"
    },
    "categories": {
      "auth": {
        "richardsremised2e68537": {}
      },
      "function": {
        "FEauctions": {
          "deploymentBucketName": "amplify-amplify0ae59f75033c4-staging-165000-deployment",
          "s3Key": "amplify-builds/FEauctions-496e6a6a636e4d6d7750-build.zip"
        },
        "FEfollows": {
          "deploymentBucketName": "amplify-amplify0ae59f75033c4-staging-165000-deployment",
          "s3Key": "amplify-builds/FEfollows-37496e6f4e3376546956-build.zip"
        },
        "WSsubscribe": {
          "deploymentBucketName": "amplify-amplify0ae59f75033c4-staging-165000-deployment",
          "s3Key": "amplify-builds/WSsubscribe-67432b35474f63655771-build.zip"
        },
        "WSdisconnect": {
          "deploymentBucketName": "amplify-amplify0ae59f75033c4-staging-165000-deployment",
          "s3Key": "amplify-builds/WSdisconnect-4172653569375057707a-build.zip"
        },
        "LAbidupdate": {
          "deploymentBucketName": "amplify-amplify0ae59f75033c4-staging-165000-deployment",
          "s3Key": "amplify-builds/LAbidupdate-6d4e3779694635523836-build.zip"
        },
        "FEbidsn": {
          "deploymentBucketName": "amplify-amplify0ae59f75033c4-staging-165000-deployment",
          "s3Key": "amplify-builds/FEbidsn-6e38686374513378674a-build.zip"
        },
        "LAtimerreset": {
          "deploymentBucketName": "amplify-amplify0ae59f75033c4-staging-165000-deployment",
          "s3Key": "amplify-builds/LAtimerreset-6b4974554b4a586a6a6f-build.zip"
        },
        "LApriceupdate": {
          "deploymentBucketName": "amplify-amplify0ae59f75033c4-staging-165000-deployment",
          "s3Key": "amplify-builds/LApriceupdate-4845584c4c6149594232-build.zip"
        },
        "LAnewbid": {
          "deploymentBucketName": "amplify-amplify0ae59f75033c4-staging-165000-deployment",
          "s3Key": "amplify-builds/LAnewbid-744d5357356e352f6a38-build.zip"
        },
        "LAmaxbidupdate": {
          "deploymentBucketName": "amplify-amplify0ae59f75033c4-staging-165000-deployment",
          "s3Key": "amplify-builds/LAmaxbidupdate-677935373233746e5631-build.zip"
        },
        "FEmollie": {
          "deploymentBucketName": "amplify-amplify0ae59f75033c4-staging-165000-deployment",
          "s3Key": "amplify-builds/FEmollie-706c395a526f736a6641-build.zip"
        },
        "FEcomments": {
          "deploymentBucketName": "amplify-amplify0ae59f75033c4-staging-165000-deployment",
          "s3Key": "amplify-builds/FEcomments-77686f72723879386d50-build.zip"
        },
        "MOwebhook": {
          "deploymentBucketName": "amplify-amplify0ae59f75033c4-staging-165000-deployment",
          "s3Key": "amplify-builds/MOwebhook-366975394149654d6167-build.zip"
        }
      },
      "storage": {
        "richardsremisea0d8c203": {
          "bucketName": "remisestorage01812-staging",
          "region": "eu-central-1"
        },
        "dynamo0110890fstaging": {
          "tableName": "dynamo0110890f-staging",
          "region": "eu-central-1",
          "arn": "arn:aws:dynamodb:eu-central-1:715100531220:table/dynamo0110890f-staging",
          "streamArn": "arn:aws:dynamodb:eu-central-1:715100531220:table/dynamo0110890f-staging/stream/2021-06-13T15:07:08.627",
          "partitionKeyName": "id",
          "partitionKeyType": "S"
        },
        "dynamo73822f32staging": {
          "tableName": "dynamo73822f32-staging",
          "region": "eu-central-1",
          "arn": "arn:aws:dynamodb:eu-central-1:715100531220:table/dynamo73822f32-staging",
          "streamArn": "arn:aws:dynamodb:eu-central-1:715100531220:table/dynamo73822f32-staging/stream/2021-06-13T15:41:15.912",
          "partitionKeyName": "info",
          "partitionKeyType": "S"
        }
      }
    }
  }
}